%YAML 1.1
%TAG !u! tag:unity3d.com,2011:
--- !u!114 &11400000
MonoBehaviour:
  m_ObjectHideFlags: 0
  m_PrefabParentObject: {fileID: 0}
  m_PrefabInternal: {fileID: 0}
  m_GameObject: {fileID: 0}
  m_Enabled: 1
  m_EditorHideFlags: 0
  m_Script: {fileID: 11500000, guid: 8c41d5cefd135ed4fb5506a4cfcf27b2, type: 3}
  m_Name: BlueRabbit
  m_EditorClassIdentifier: 
  id: BlueRabbit
  typeName: Blue Rabbit
  description: Shoots Slow. Moves Slow. Heavy Damage.
  fwMovementDuration: 2.5
  damage: 120
  model: {fileID: 1161129720435960, guid: 72b0c8c70b8f0704e8f4ebf3de0594e4, type: 2}
  shootDelay: 0.5
  bulletShootDuration: 0.5
  lrMovementDuration: 3
