%YAML 1.1
%TAG !u! tag:unity3d.com,2011:
--- !u!114 &11400000
MonoBehaviour:
  m_ObjectHideFlags: 0
  m_PrefabParentObject: {fileID: 0}
  m_PrefabInternal: {fileID: 0}
  m_GameObject: {fileID: 0}
  m_Enabled: 1
  m_EditorHideFlags: 0
  m_Script: {fileID: 11500000, guid: 88f8b22c3bc14f644855bd1ee394a39e, type: 3}
  m_Name: EnemyKilled
  m_EditorClassIdentifier: 
  tag: ENEMY_KILLED
  achivementTitle: First Enemy Killed
  achievementDescription: Killed first monster in the game!
  isUnlocked: 0
